module mhs-db

go 1.20

require (
	github.com/dustin/go-humanize v1.0.1
	github.com/flamego/binding v1.3.0
	github.com/flamego/flamego v1.9.1
	github.com/flamego/session v1.3.0
	github.com/flamego/template v1.2.2
	github.com/flamego/validator v1.0.0
	github.com/json-iterator/go v1.1.12
	gorm.io/driver/sqlite v1.5.2
	gorm.io/gorm v1.25.2
)

require (
	github.com/alecthomas/participle/v2 v2.0.0 // indirect
	github.com/aymanbagabas/go-osc52/v2 v2.0.1 // indirect
	github.com/charmbracelet/lipgloss v0.7.1 // indirect
	github.com/charmbracelet/log v0.2.2 // indirect
	github.com/go-logfmt/logfmt v0.6.0 // indirect
	github.com/jinzhu/inflection v1.0.0 // indirect
	github.com/jinzhu/now v1.1.5 // indirect
	github.com/leodido/go-urn v1.2.1 // indirect
	github.com/lucasb-eyer/go-colorful v1.2.0 // indirect
	github.com/mattn/go-isatty v0.0.18 // indirect
	github.com/mattn/go-runewidth v0.0.14 // indirect
	github.com/mattn/go-sqlite3 v1.14.17 // indirect
	github.com/modern-go/concurrent v0.0.0-20180228061459-e0a39a4cb421 // indirect
	github.com/modern-go/reflect2 v1.0.2 // indirect
	github.com/muesli/reflow v0.3.0 // indirect
	github.com/muesli/termenv v0.15.1 // indirect
	github.com/pkg/errors v0.9.1 // indirect
	github.com/rivo/uniseg v0.2.0 // indirect
	golang.org/x/crypto v0.6.0 // indirect
	golang.org/x/sys v0.6.0 // indirect
	golang.org/x/text v0.7.0 // indirect
	gopkg.in/yaml.v3 v3.0.1 // indirect
)
